<svg xmlns="http://www.w3.org/2000/svg" viewBox="0 0 490 333">
  <g fill="none">
    <path fill="#F7B2C8" d="M244.2 245.5V.1c-.5 0-.9-.1-1.4-.1-12.6 0-23.1 8.4-25.8 19.6-2.5-.6-5.1-.9-7.7-.9-13.1 0-24.4 7.2-30 17.6-2.7-.7-5.5-1-8.5-1-18.8 0-34 14.5-34 32.5 0 2.5.3 5 .9 7.4-17.9 2.2-33 15.4-36.1 33.4-1.7 9.7.4 19.2 5.3 27.1-11.4 5.3-19.2 16.4-19.2 29.3 0 7.4 2.6 14.2 7 19.7-11.7 6.3-18.8 18.9-17 32.4 2 15 14.4 26.4 29.4 28.2v.3h137.1v-.1zm-88.5-81c.3.4.7.8 1 1.2-.3.1-.7.1-1 .2v-1.4z"/>
    <path fill="#EA92B2" d="M215.4 39.1c-.7 0-1.4-.5-1.5-1.2-.7-5.5.9-11 4.5-15.4s8.7-7.2 14.5-7.9c.8-.1 1.5.5 1.6 1.2.1.8-.5 1.5-1.3 1.6-5 .6-9.4 3-12.5 6.8-3.1 3.8-4.5 8.5-3.8 13.3.1.8-.5 1.5-1.3 1.6h-.2zm-34.7 59.4c-.5 0-1.1-.3-1.3-.8-5.8-11.1-16.9-18.9-29.7-20.9-.7-.1-1.4-.2-2-.3-.8-.1-1.4-.8-1.3-1.6.1-.8.8-1.3 1.6-1.2.7.1 1.5.2 2.2.3 13.7 2.2 25.6 10.5 31.8 22.4.4.7.1 1.5-.7 1.9-.1.1-.3.2-.6.2z"/>
    <path fill="#EA92B2" d="M176.4 45.3h-.3c-.8-.2-1.3-.9-1.1-1.7 3.5-15.2 17.9-26.3 34.2-26.3 4.4 0 8.6.8 12.6 2.2.8.3 1.1 1.1.8 1.8-.3.7-1.1 1.1-1.9.8-3.7-1.4-7.6-2.1-11.6-2.1-15 0-28.1 10.1-31.4 24.1 0 .8-.6 1.2-1.3 1.2zm-2.3 73.5c-.8 0-1.5-.6-1.5-1.4 0-18.7 15.9-33.9 35.4-33.9.8 0 1.5.6 1.5 1.4 0 .8-.7 1.4-1.5 1.4-17.9 0-32.5 13.9-32.5 31.1.1.8-.5 1.4-1.4 1.4zm47.8 123.9c-.2 0-.4 0-.6-.1-.7-.3-1.1-1.1-.8-1.9 3.8-8.4 2.9-18.2-2.4-25.8-.5-.6-.3-1.5.4-2 .7-.4 1.6-.3 2 .4 5.9 8.5 6.9 19.1 2.6 28.5 0 .6-.6.9-1.2.9z"/>
    <path fill="#EA92B2" d="M200 220.7c-3.7 0-7.4-.6-11.1-1.7-.8-.2-1.2-1-.9-1.8.3-.7 1.1-1.1 1.9-.9 8.2 2.6 17 1.9 24.8-1.8 7.7-3.8 13.5-10.2 16.2-18.1.3-.7 1.1-1.1 1.9-.9.8.2 1.2 1 .9 1.8-2.9 8.6-9.2 15.6-17.7 19.7-5 2.4-10.5 3.7-16 3.7zm-32.2-42.9c-.2 0-.3 0-.5-.1-.8-.3-1.2-1.1-.9-1.8 3.1-8.6 9.5-15.4 18.1-19.4 8.5-3.9 18.1-4.5 27.1-1.5.8.3 1.2 1.1.9 1.8-.3.7-1.1 1.1-1.9.9-16.9-5.7-35.5 2.9-41.4 19.1-.2.6-.8 1-1.4 1z"/>
    <path fill="#EA92B2" d="M231.2 169.2h-.3c-.6-.1-1.2-.3-1.8-.4-14.2-3.9-24.6-15.4-26.4-29.4-.1-.8.5-1.5 1.3-1.6.8-.1 1.5.5 1.6 1.2 1.7 12.9 11.2 23.5 24.3 27.1.6.1 1.1.3 1.7.4.8.2 1.3.9 1.1 1.7-.2.5-.8 1-1.5 1zm-86.5 38.7c-.7 0-1.3-.5-1.4-1.1-3.4-15.8-19.1-26.7-35.9-24.6-.8.1-1.5-.4-1.6-1.2-.1-.8.5-1.5 1.3-1.6 18.3-2.2 35.5 9.6 39.1 26.9.2.8-.4 1.5-1.2 1.7-.1-.1-.2-.1-.3-.1z"/>
    <path fill="#EA92B2" d="M137.7 225.5c-.7 0-1.4-.5-1.5-1.2-.7-5.5.9-11 4.5-15.4s8.7-7.2 14.5-7.9c.8-.1 1.5.5 1.6 1.2.1.8-.5 1.5-1.3 1.6-5 .6-9.4 3-12.5 6.8-3.1 3.8-4.5 8.5-3.8 13.3.1.8-.5 1.5-1.3 1.6h-.2zm5.4-68.7c-12.1 0-23.9-4.9-32.3-13.8-.5-.6-.5-1.5.1-2s1.5-.5 2.1.1c10.9 11.6 28 15.8 43.4 10.7.7-.2 1.3-.4 1.9-.7.8-.3 1.6.1 1.9.8.3.7-.1 1.5-.8 1.8-.7.3-1.4.5-2.1.7-4.6 1.7-9.4 2.4-14.2 2.4z"/>
    <path fill="#BDE0FF" d="M412.6 245.5H244.2V.1h1.7c92 0 166.7 71.4 166.7 159.5v85.9z"/>
    <path fill="#4386C9" d="M352 227.7h-2.9v-51.8h-32.5v-9h-33.3v-57.4h6.5V83.4h-13.1V36h3v44.5h13.1v31.8h-6.6v51.8h33.4v9H352v54.6zm-34.8-18.2h-25v-21.4H262v-2.8h33.2v21.3h22v2.9zM258.5 57.7h3v107.8h-3V57.7z"/>
    <path fill="#4386C9" d="M374.7 142.9h-34.2v-9.6h-31V95.6h2.9v34.9h31v9.6h31.3v2.8zM272.3 2.1c-1-.1-2-.3-3-.4V16h3V2.1zm33 8.4c-1-.4-2-.7-3-1.1v33.1h-6.4v2.8h9.3V10.5h.1zm55.3 71.1h-38.9V17.5c-1-.5-2-.9-3-1.4v68.3h41.8v-2.8h.1zm4.8-33.2h-18.3v2.8h21.1l-2.8-2.8zm42.1 71.9h-46.8v2.8h47.5c-.2-.9-.5-1.8-.7-2.8zm-24 38.4h3v86.8h-3v-86.8zm-108.4 86.8v-31.2H260v2.9h12.1v28.3h3z"/>
    <ellipse cx="260" cy="57.7" fill="#4386C9" rx="4.3" ry="4.1"/>
    <ellipse cx="260" cy="164.9" fill="#4386C9" rx="4.3" ry="4.1"/>
    <ellipse cx="260" cy="186.5" fill="#4386C9" rx="4.3" ry="4.1"/>
    <ellipse cx="277.8" cy="36" fill="#4386C9" rx="4.3" ry="4.1"/>
    <ellipse cx="350.6" cy="227.7" fill="#4386C9" rx="5.9" ry="5.6"/>
    <ellipse cx="320.3" cy="208.2" fill="#4386C9" rx="5.9" ry="5.6"/>
    <ellipse cx="385" cy="158.7" fill="#4386C9" rx="6.5" ry="6.2"/>
    <ellipse cx="364.3" cy="83" fill="#4386C9" rx="6.5" ry="6.2"/>
    <path fill="#4386C9" d="M62.5 290.3c2.7 2.4 4.1 5.9 4.1 10.6l-.3 29-15.3 1.2-.2-24.3c0-2.1-.4-3.7-1.3-4.8-.9-1.1-2-1.6-3.5-1.6-1.4 0-2.6.5-3.4 1.5-.9 1-1.4 2.4-1.7 4.1l-.2 24.8-15.3.2-.2-23.4c0-2.1-.4-3.7-1.3-4.8-.9-1.1-2-1.6-3.5-1.6-1.6 0-2.9.6-3.7 1.9-.8 1.3-1.3 3-1.4 5.2L16 331H.4v-42l14.2-.5.1 2.2c1.4-1.1 3.1-1.9 5.1-2.5 2-.6 4-.9 6.1-.9 5.4 0 9.4 1.6 12 4.8 1.4-1.7 3.3-3.1 5.8-4.1 2.5-1 5.1-1.5 7.9-1.5 4.6.2 8.2 1.4 10.9 3.8zm41.8-.2c3.3 2 5.8 4.9 7.4 8.6 1.6 3.7 2.4 7.9 2.2 12.7l-29.1 2.1c.7 1.6 1.8 3 3.3 3.9 1.5 1 3.1 1.5 5 1.6 1.9 0 3.5-.3 4.9-1 1.3-.7 2.3-1.6 2.9-2.9l12.5 3.2c-.8 2.7-2.2 5-4.2 7.1-2 2.1-4.5 3.7-7.3 4.9-2.8 1.2-5.8 1.8-8.8 1.8-4.1 0-8-1.1-11.4-3.2-3.5-2.1-6.3-4.9-8.3-8.5-2-3.6-3.1-7.5-3.1-11.8 0-4.2 1-7.9 2.9-11.2 1.9-3.2 4.6-5.8 8-7.6 3.4-1.8 7.2-2.7 11.4-2.7 4.4-.1 8.4.9 11.7 3zm-17.1 9.3c-1.4 1.1-2.3 2.6-2.9 4.5l15.1-1.4c-.4-1.4-1.3-2.6-2.6-3.5-1.3-.9-2.8-1.3-4.6-1.3-2 0-3.6.6-5 1.7zm57.7 11.9c.1-2.6-.4-4.5-1.3-5.9-.9-1.4-2.2-2.1-4-2.1-1.9 0-3.3.6-4 1.9-.8 1.3-1.2 3.2-1.2 5.9h-.1l-.1 19.7h-16.6l-.2-42.9 17-.9v3.2c3.5-2.7 7-4 10.5-4 5.5 0 9.6 2 12.3 6.1 2.7 4 4.1 9.6 4.1 16.8l.1 21.5h-17l.5-19.3zm54.5 13.3c-1.6 2.5-3.6 4.3-6 5.5-2.4 1.2-5.4 1.8-9 1.8-4.9 0-8.6-1.1-11.1-3.3-2.5-2.2-3.8-6-3.8-11.3 0-1.5.1-3.4.4-5.8l1.6-11.6-6.5.1-.6-12.8 8.9-.2.9-6.4 14.8-.7-.9 6.8 8.3-.2 1.5 13.2-11.6.1-1.3 10.1c-.1.3-.1.8-.1 1.4 0 1.6.5 3 1.4 4.1.9 1.1 2 1.6 3.4 1.6 2.2 0 4.1-1.3 5.6-3.8l4.1 11.4zm32.7 6.2v-3c-2.7 2.8-6.7 4.2-12 4.2-3.5 0-6.7-1-9.7-3.1-2.9-2-5.2-4.8-6.9-8.3-1.7-3.5-2.6-7.2-2.6-11.2 0-3.9.9-7.6 2.8-11.1 1.8-3.4 4.2-6.2 7.2-8.2 3-2 6.1-3.1 9.3-3.1 5.3 0 9.1 1.4 11.4 4.2v-3h13.7l1.9 42.4h-15.1v.2zm-2.3-15.8c1.3-1.4 2-3.2 2-5.5s-.7-4.1-2.1-5.4c-1.4-1.3-3.2-2-5.5-2-2.1 0-3.8.7-5.2 2.1-1.4 1.4-2.1 3.1-2.1 5.2 0 1.2.3 2.4 1 3.6.6 1.2 1.5 2.2 2.7 3 1.1.8 2.4 1.2 3.9 1.2 2.1-.1 3.9-.8 5.3-2.2zm45.6 16.1c-2.2.6-4.8.9-7.9.9-2.9 0-5.4-.7-7.6-2.1-2.2-1.4-3.9-3.3-5.1-5.8-1.2-2.5-1.8-5.4-1.8-8.6l.2-41.2 15.6-3.8.1 39.7c0 1.5.4 2.7 1.1 3.8.7 1 1.7 1.5 2.8 1.5 1.5 0 2.7-.5 3.5-1.4l3.8 14.4c-1.1 1.1-2.6 2-4.7 2.6z"/>
    <path fill="#EA92B2" d="M346.7 290.3c2.7 2.4 4.1 5.9 4.1 10.6l-.3 29-15.3 1.2-.2-24.3c0-2.1-.4-3.7-1.3-4.8-.9-1.1-2-1.6-3.5-1.6-1.4 0-2.6.5-3.4 1.5-.9 1-1.4 2.4-1.7 4.1l-.2 24.8-15.3.2-.2-23.4c0-2.1-.4-3.7-1.3-4.8-.9-1.1-2-1.6-3.5-1.6-1.6 0-2.9.6-3.7 1.9-.8 1.3-1.3 3-1.4 5.2l.7 22.7h-15.6v-42l14.2-.5.1 2.2c1.4-1.1 3.1-1.9 5.1-2.5 2-.6 4-.9 6.1-.9 5.4 0 9.4 1.6 12 4.8 1.4-1.7 3.3-3.1 5.8-4.1 2.5-1 5.1-1.5 7.9-1.5 4.6.2 8.2 1.4 10.9 3.8zm38.7 40.5v-3c-2.7 2.8-6.7 4.2-12 4.2-3.5 0-6.7-1-9.7-3.1-2.9-2-5.2-4.8-6.9-8.3-1.7-3.5-2.6-7.2-2.6-11.2 0-3.9.9-7.6 2.8-11.1 1.8-3.4 4.2-6.2 7.2-8.2 3-2 6.1-3.1 9.3-3.1 5.3 0 9.1 1.4 11.4 4.2v-3h13.7l1.9 42.4h-15.1v.2zm-2.3-15.8c1.3-1.4 2-3.2 2-5.5s-.7-4.1-2.1-5.4c-1.4-1.3-3.2-2-5.5-2-2.1 0-3.8.7-5.2 2.1-1.4 1.4-2.1 3.1-2.1 5.2 0 1.2.3 2.4 1 3.6.6 1.2 1.5 2.2 2.7 3 1.1.8 2.4 1.2 3.9 1.2 2.2-.1 4-.8 5.3-2.2zm55.7 9.6c-1.6 2.5-3.6 4.3-6 5.5-2.4 1.2-5.4 1.8-9 1.8-4.9 0-8.6-1.1-11.1-3.3-2.5-2.2-3.8-6-3.8-11.3 0-1.5.1-3.4.4-5.8l1.6-11.6-6.5.1-.6-12.8 8.9-.2.9-6.4 14.8-.7-.9 6.8 8.3-.2 1.5 13.2-11.6.1-1.3 10.1c-.1.3-.1.8-.1 1.4 0 1.6.5 3 1.4 4.1.9 1.1 2 1.6 3.4 1.6 2.2 0 4.1-1.3 5.6-3.8l4.1 11.4zm50.7 6.2h-16.6l-1.1-21.5c-.1-2.1-.7-3.9-1.6-5.4-1-1.5-2.5-2.2-4.6-2.2-3.7 0-5.8 3.2-6.1 9.7l.2 19.4-16.8-.2-.9-64.1 17.1 2.1.2 22.4c2.8-2.6 6.7-3.8 11.6-3.8 2.8 0 5.6.7 8.3 2.2 2.7 1.4 5 3.5 6.8 6.3 1.8 2.8 2.7 5.9 2.8 9.5l.7 25.6z"/>
  </g>
</svg>